...........................
----------------------------------------------------------------------
Ran 27 tests in 0.297s

OK
Name             Stmts   Miss Branch BrPart  Cover   Missing
------------------------------------------------------------
Collatz.py          37      0     14      1    98%   50->60
TestCollatz.py     112      0      0      0   100%
------------------------------------------------------------
TOTAL              149      0     14      1    99%
