1 10 20
100 200 125
201 210 89
900 1000 174
3529 7698 262
5094 2319 238
1432 8898 262
3024 2364 217
5438 9866 262
2313 3914 238
1614 4672 238
574 7682 262
6864 6138 262
1129 2772 209
304 9610 262
7573 7070 239
4282 9359 262
7609 9061 252
139 7803 262
9076 5923 262
2777 6452 262
6912 1814 262
3126 5379 238
7216 5299 262
2111 1612 180
2821 9690 262
2390 6613 262
2251 6223 262
9092 3218 262
1584 68 182
1323 7243 262
6543 2845 262
5892 6188 262
1590 5194 238
7266 7024 195
3239 9439 262
6480 8198 257
7901 5522 262
962 1165 182
5318 8535 262
3348 1267 217
487 6852 262
4133 8543 262
3484 9238 262
7973 6755 257
886 8652 262
1681 3864 238
4771 3292 238
2120 4187 238
4013 3437 238
1282 7853 262
8258 6925 257
2610 6813 262
156 2657 209
628 1596 182
2538 1216 209
1839 4272 238
8817 5022 262
5649 8258 262
2023 9844 262
9140 2922 262
9488 7843 260
6515 8229 257
7313 7384 195
2162 5269 238
1039 1046 125
332 2223 183
5636 3140 238
2252 8439 262
8383 2702 262
1738 4592 238
2250 7203 262
144 9975 262
7632 707 262
7319 4666 262
3073 839 217
9586 3850 262
559 7353 262
1043 964 156
7402 8719 252
3390 776 217
3404 4847 238
4690 5954 236
3327 7988 262
6044 7557 262
8994 5394 262
9820 9298 198
8209 6162 262
2899 5867 238
7378 5056 262
4307 9948 262
2374 3045 217
4745 955 238
9735 7387 260
7850 6028 262
8225 3847 262
146 4877 238
3849 5189 215
9397 8060 260
6223 8100 257
823 3789 238
8733 5809 262
7207 4328 262
9257 2553 262
1 999999 525
1 1 1
10 10 7
100 100 26
9999 9999 92
9873 9873 136
