1 10 20
100 200 125
201 210 89
900 1000 174
1 1 1
10 1 20
2 1 2
1 1000 179
2 1596 182
99 9999 262
1 1999 182
340 30100 308
5 6 9
7 10 20
1 98746 351
9999 9998 92
9 8 20
8 9 20
9 2 20
2 9 20
800 600 171
600 800 171
3498 4899 238
10001 10002 180
100000 99999 227
99999 99998 227
8023 1238 262
3398 3789 238
20394 24893 282
30 31 107
30 40 107
100 200 125
40 43 110
89 300 128
303 494 144
759 1048 179
385 401 121
758 600 171
999999 999998 259
30404 30403 86
98 100 26
490 100 144
4950 5000 179
44 42 30
789 780 122
11 20 21
5050 5051 86
8590 3039 262
10 78 116
568 789 171
294 100 128
400 500 142
1005 1000 143
4950 6969 262
64 89 116
1 5 8
5 7 17
7 11 20
11 13 15
17 19 21
23 29 112
37 41 110
43 47 105
47 53 105
53 59 113
54 59 113
61 67 108
67 71 103
71 73 116
1 2 2
1 3 8
1 5 8
1 7 17
1 11 20
1 13 20
1 17 20
1 19 21
1 23 21
23 27 112
997 991 112
991 983 143
977 971 143
971 977 143
757 769 153
769 757 153
800 809 73
809 811 135
79 499 144
499 500 111
1 3 8
3 1 8
10303 15040 276
88999 94884 333
1022 3049 217
854 739 153
29 21 112
9811 10000 242
10000 10500 255
699 719 171
719 900 179
900 1023 174
817 761 153
2020 2020 64
11 11 15
21 21 8
8 8 4
38484 38484 63
500 500 111
499 500 111
99999 99999 227
409 409 41
953 953 29
997 997 50
